%YAML 1.1
%TAG !u! tag:unity3d.com,2011:
--- !u!114 &11400000
MonoBehaviour:
  m_ObjectHideFlags: 0
  m_PrefabParentObject: {fileID: 0}
  m_PrefabInternal: {fileID: 0}
  m_GameObject: {fileID: 0}
  m_Enabled: 1
  m_EditorHideFlags: 0
  m_Script: {fileID: 11500000, guid: 55b78d6060eadde4394ed1d0ba2b8c97, type: 3}
  m_Name: TilemapdemoEditorData
  m_EditorClassIdentifier: 
  editMode: 3
  brushColor: {r: 1, g: 1, b: 1, a: 1}
  brushRadius: 1
  blendStrength: 1
  blendMode: 0
  brushDisplayScale: 1
  defaultBrush:
    name: 
    type: 0
    paintMode: 0
    tiles:
    - x: 0
      y: 0
      layer: 0
      spriteId: 0
      blendAmount: 0
    multiSelectTiles: 
    edgeMode: 0
    multiLayer: 0
    overrideWithSpriteBounds: 0
    brushHash: -581736512
  activeBrush:
    name: 
    type: 0
    paintMode: 0
    tiles:
    - x: 0
      y: 0
      layer: 0
      spriteId: 0
      blendAmount: 0
    multiSelectTiles: 
    edgeMode: 0
    multiLayer: 0
    overrideWithSpriteBounds: 0
    brushHash: 351794304
  brushes: []
  paletteBrush:
    name: 
    type: 0
    paintMode: 0
    tiles:
    - x: 0
      y: 0
      layer: 0
      spriteId: 0
      blendAmount: 0
    multiSelectTiles: 
    edgeMode: 0
    multiLayer: 0
    overrideWithSpriteBounds: 0
    brushHash: -1573228224
  paletteTilesPerRow: 8
  setupMode: 0
  showBrush: 1
  showPalette: 1
  layer: 0
  scratchpads: []
