1;1,2;1,4;1,6;1,8;2;2,2;2,4;2,6;2,8;3;3,2;3,4;3,6;3,8;4;4,2;4,4;4,6;4,8;5;5,2;5,4;5,6;5,8;6;6,2;6,4;6,6;6,8;7;7,2;7,4;7,6;7,8;8;8,2;8,4;8,6;8,8;9;9,2;9,4;9,6;9,8;10
0;0,182321557;0,336472237;0,470003629;0,587786665;0,693147181;0,78845736;0,875468737;0,955511445;1,029619417;1,098612289;1,16315081;1,223775432;1,280933845;1,335001067;1,386294361;1,435084525;1,481604541;1,526056303;1,568615918;1,609437912;1,648658626;1,686398954;1,722766598;1,757857918;1,791759469;1,824549292;1,85629799;1,887069649;1,916922612;1,945910149;1,974081026;2,00148;2,028148247;2,054123734;2,079441542;2,104134154;2,128231706;2,151762203;2,174751721;2,197224577;2,219203484;2,240709689;2,261763098;2,282382386;2,302585093
1;1,2;1,4;1,6;1,8;2;2,2;2,4;2,6;2,8;3;3,2;3,4;3,6;3,8;4;4,2;4,4;4,6;4,8;5;5,2;5,4;5,6;5,8;6;6,2;6,4;6,6;6,8;7;7,2;7,4;7,6;7,8;8;8,2;8,4;8,6;8,8;9;9,2;9,4;9,6;9,8;10
0,333333333;0,45;0,576470588;0,711111111;0,852631579;1;1,152380952;1,309090909;1,469565217;1,633333333;1,8;1,969230769;2,140740741;2,314285714;2,489655172;2,666666667;2,84516129;3,025;3,206060606;3,388235294;3,571428571;3,755555556;3,940540541;4,126315789;4,312820513;4,5;4,687804878;4,876190476;5,065116279;5,254545455;5,444444444;5,634782609;5,825531915;6,016666667;6,208163265;6,4;6,592156863;6,784615385;6,977358491;7,17037037;7,363636364;7,557142857;7,750877193;7,944827586;8,138983051;8,333333333
0,019607843;0,03375;0,053385214;0,079379845;0,112586873;0,153846154;0,203984674;0,263816794;0,334144487;0,415757576;0,509433962;0,61593985;0,736029963;0,870447761;1,019925651;1,185185185;1,366937269;1,565882353;1,782710623;2,01810219;2,272727273;2,547246377;2,842310469;3,158561151;3,496630824;3,857142857;4,240711744;4,647943262;5,079434629;5,535774648;6,01754386;6,525314685;7,059651568;7,621111111;8,210242215;8,827586207;9,473676976;10,1490411;10,85419795;11,58965986;12,3559322;13,15351351;13,98289562;14,84456376;15,73899666;16,66666667
1,648721271;1,518432334;1,438394791;1,39096308;1,366446173;1,359140914;1,365530011;1,383382051;1,411267949;1,448285702;1,493896357;1,547822633;1,609984527;1,680457629;1,759445906;1,847264025;1,94432617;2,051139432;2,168300534;2,296495079;2,436498792;2,589180391;2,755505875;2,936544066;3,13347334;3,347589487;3,580314723;3,833207843;4,107975594;4,406485301;4,730778851;5,083088117;5,465851941;5,881734802;6,333647321;6,824768754;7,358571658;7,938848933;8,569743453;9,25578053;10,00190348;10,81351257;11,69650771;12,65733516;13,70303874;14,84131591
0;0,44;0,86;1,26;1,64;2;2,34;2,66;2,96;3,24;3,5;3,74;3,96;4,16;4,34;4,5;4,64;4,76;4,86;4,94;5;5,04;5,06;5,06;5,04;5;4,94;4,86;4,76;4,64;4,5;4,34;4,16;3,96;3,74;3,5;3,24;2,96;2,66;2,34;2;1,64;1,26;0,86;0,44;0
