ERP;Short_Description;Description;Production_Speed;Unit;Nb_Operator;Engine_Cost;Human_Cost;Gamme;ProcessID
RPC.2028.20;Assemblage;Pr\351p. SIE 2028 20 25;350;;;0.20;0.20;10;0
RPC.2028.20;Test;Assemb. RPC - Cirmeca;130;;;0.30;0.30;20;1
RPC.2028.20;Endurance;Essai 6 b. RPC 20 /2;130;;;0.45;0.45;30;7
RPC.2028.20;Emballage;Assemb. Essai Marq. RPC - Robot;130;;;0.12;0.13;40;8
RPC.2028.20;Finition;Noyautage SMF (x4);160;;;0.10;0.10;10;10
